digraph G {

  subgraph cluster0 {
    node [style=filled ]
   label="privacy bubble"
    style=dashed
  "peer1" -> "peer2"
  "peer2" -> "peer1"
  "peer1" -> "peer3"
  "peer3" -> "peer1"
  "peer1" -> "peer4"
  "peer4" -> "peer1"
  "peer2" -> "peer3"
  "peer3" -> "peer2"
  "peer3" -> "peer4"
  "peer4" -> "peer3"
 "peer4" -> "peer2"
  "peer4" -> "peer2"
    "peer1" -> "cobox"
    "cobox" -> "peer1"
    "peer2" -> "cobox"
    "cobox" -> "peer2"
    "peer3" -> "cobox"
    "cobox" -> "peer3"
    "peer4" -> "cobox"
    "cobox" -> "peer4"
"cobox" [fillcolor=pink]


 }
subgraph cluster1 {

"cobox" -> "another coops cobox" [style=dashed ]
"peer1" -> "another coops cobox" [style=dashed label="blind replication"]
"peer4" -> "another coops cobox" [style=dashed ]
}
}
